/:  Bus 04.Port 1: Dev 1, Class=root_hub, Driver=xhci_hcd/6p, 5000M
/:  Bus 03.Port 1: Dev 1, Class=root_hub, Driver=xhci_hcd/14p, 480M
    |__ Port 2: Dev 2, If 0, Class=Human Interface Device, Driver=usbhid, 1.5M
    |__ Port 5: Dev 3, If 0, Class=Human Interface Device, Driver=usbhid, 1.5M
    |__ Port 7: Dev 4, If 0, Class=Mass Storage, Driver=usb-storage, 480M
    |__ Port 9: Dev 5, If 0, Class=Mass Storage, Driver=usb-storage, 480M
/:  Bus 02.Port 1: Dev 1, Class=root_hub, Driver=ehci-pci/3p, 480M
    |__ Port 1: Dev 2, If 0, Class=Hub, Driver=hub/8p, 480M
/:  Bus 01.Port 1: Dev 1, Class=root_hub, Driver=ehci-pci/3p, 480M
    |__ Port 1: Dev 2, If 0, Class=Hub, Driver=hub/6p, 480M
