Escriba el caracter '.' para terminar de recibir entradas en la terminal:
archivos_ejemplo/c.txt	99	0e8f6501489fcb78acc76d20a0cce1ac	dabcbb38c71bb0315b9b05eab49456647fa5df26
archivos_ejemplo/b.txt	133	3383e5837ec840d08dd38282852ffd85	ec4ae72f9f502aa042f13a10397599ae4b7cc45d
archivos_ejemplo/e.txt	131	4fdc47c8c824f5e217dcc6e1092653de	27604fe2f1e0cbf837169c92cc263f7a7074100a
archivos_ejemplo/f.txt	147	a36ef979fd3f1cccf220447ae185e20e	d07c49ce3fcb8dd42f7bd3952423c34bb0142268
archivos_ejemplo/d.txt	149	b3d1d9679c204afe2d1a2edb49d01bec	6ff8ff5040fa5025456948dc3ae8b2e052343bf9
archivos_ejemplo/a.txt	72	97a9974cd9537008b0bbb95a9479475c	1c1e63855fffe105b509377471c78a8e25314a6a
